{
    "jet_collection": "AntiKt4EMPFlowJets",
    "calibration": {
        "file": "fragments/pflow-calibration.json"
    },
    "selection": {
        "file": "fragments/pflow-selection.json"
    },
    "vertex_collection": "PrimaryVertices",
    "dl2_configs": [
        {
            "nn_file_path": "BTagging/20220314/dipsLoose/antikt4empflow/network.json",
            "remapping": {
                "invalidIp": ""
            }
        },
        {
            "nn_file_path": "BTagging/20220509/dl1dLoose/antikt4empflow/network.json",
            "remapping": {
                "invalidIp": ""
            }
        }
    ],
    "variables": {
        "file": "fragments/pflow-variables.json",
        "btagging": {
            "chars": [
                "rnnip_isDefaults"
            ],
            "floats": [
                "DL1dv01_pu",
                "DL1dv01_pc",
                "DL1dv01_pb",
                "GN2v01_pu",
                "GN2v01_pc",
                "GN2v01_pb",
                "GN2v01_ptau"
            ]
        },
        "default_mapping": {
            "file": "fragments/default-mapping.json"
        }
    },
    "tracks": [],
    "truths": [
        {
            "file": "fragments/overlap-leptons-TRUTH3.json"
        }
    ],
    "decorate": {
        "jet_aug": false,
        "btag_jes": true,
        "soft_muon": false,
        "track_sv_info": false
    },
    "btagging_link": "btaggingLink"
}
